<?xml version="1.0" encoding="utf-8"?>
<!DOCTYPE svg PUBLIC "-//W3C//DTD SVG 1.1//EN" "http://www.w3.org/Graphics/SVG/1.1/DTD/svg11.dtd">
<svg version="1.1" id="Capa_1" xmlns="http://www.w3.org/2000/svg" xmlns:xlink="http://www.w3.org/1999/xlink" x="0px" y="0px"
	 width="12px" height="12px" viewBox="0 0 50 50" enable-background="new 0 0 50 50" xml:space="preserve">
<g>
	<path fill="#000000" d="M42.75,22.979c-1.418-3.77-5.058-6.453-9.324-6.453c-0.981,0-1.931,0.143-2.828,0.408
		c-2.43-3.924-6.772-6.536-11.725-6.536c-7.515,0-13.625,6.012-13.786,13.487c-2.748,1.592-4.6,4.566-4.6,7.962
		c0,5.073,4.117,9.193,9.194,9.193h30.641c5.074,0,9.192-4.127,9.192-9.193C49.514,27.608,46.648,24.043,42.75,22.979z
		 M40.325,37.974H9.675c-3.375,0-6.124-2.743-6.124-6.128c0-2.9,2.02-5.336,4.729-5.969c-0.086-0.551-0.132-1.115-0.132-1.691
		c0-5.923,4.801-10.725,10.726-10.725c4.843,0,8.938,3.212,10.267,7.622c1.179-0.936,2.664-1.493,4.286-1.493
		c3.549,0,6.474,2.681,6.853,6.128h0.047c3.375,0,6.123,2.743,6.123,6.128C46.449,35.225,43.708,37.974,40.325,37.974z"/>
</g>
</svg>
