<?xml version="1.0" encoding="utf-8"?>
<!DOCTYPE svg PUBLIC "-//W3C//DTD SVG 1.1//EN" "http://www.w3.org/Graphics/SVG/1.1/DTD/svg11.dtd">
<svg version="1.1" id="Capa_1" xmlns="http://www.w3.org/2000/svg" xmlns:xlink="http://www.w3.org/1999/xlink" x="0px" y="0px"
	 width="12px" height="12px" viewBox="0 0 50 50" enable-background="new 0 0 50 50" xml:space="preserve">
<path fill="#000000" d="M29.118,39.754l-3.117,0.668c0,0-0.417,0.082-0.188-0.29c0.632-1.019,2.584-4.034,2.584-4.034
	c0.314-0.492,0.172-1.146-0.319-1.461c-0.494-0.316-1.147-0.172-1.463,0.32l-3.892,6.078c-0.316,0.496-0.33,1.045-0.031,1.477
	c0.297,0.428,0.816,0.61,1.392,0.486c0,0,2.698-0.582,3.599-0.77c0.201-0.043,0.115,0.226,0.115,0.226l-2.486,4.871
	c-0.267,0.521-0.061,1.157,0.459,1.424c0.156,0.078,0.32,0.114,0.48,0.114c0.387,0,0.756-0.211,0.944-0.576l3.384-6.631
	c0.258-0.502,0.225-1.043-0.084-1.445C30.186,39.807,29.672,39.635,29.118,39.754z"/>
<path fill="#000000" d="M13.451,35.501c-0.475-0.342-1.137-0.235-1.479,0.239l-2.625,3.64c-0.342,0.474-0.233,1.136,0.24,1.476
	c0.188,0.137,0.403,0.201,0.618,0.201c0.329,0,0.651-0.152,0.858-0.438l2.625-3.641C14.031,36.504,13.924,35.843,13.451,35.501z"/>
<path fill="#000000" d="M18.439,41.418c-0.473-0.341-1.135-0.234-1.477,0.238l-2.625,3.641c-0.342,0.477-0.234,1.135,0.239,1.479
	c0.188,0.135,0.403,0.201,0.618,0.201c0.328,0,0.652-0.152,0.859-0.44l2.625-3.64C19.021,42.421,18.914,41.76,18.439,41.418z"/>
<path fill="#000000" d="M37.248,35.501c-0.475-0.342-1.135-0.235-1.479,0.239l-2.623,3.64c-0.342,0.474-0.234,1.136,0.238,1.476
	c0.187,0.137,0.403,0.201,0.618,0.201c0.328,0,0.653-0.152,0.859-0.438l2.623-3.641C37.83,36.504,37.721,35.843,37.248,35.501z"/>
<path fill="#000000" d="M42.236,41.418c-0.475-0.341-1.135-0.234-1.477,0.238l-2.625,3.641c-0.345,0.477-0.234,1.135,0.239,1.479
	c0.187,0.135,0.405,0.201,0.617,0.201c0.329,0,0.651-0.152,0.858-0.44l2.625-3.64C42.816,42.421,42.713,41.76,42.236,41.418z"/>
<path fill="#000000" d="M43.008,14.672c0.234-0.87,0.307-1.766,0.307-2.647c0-6.388-5.196-11.584-11.582-11.584
	c-5.034,0-9.43,3.186-11,7.947c-0.021,0.063-0.036,0.183-0.166,0.195c-0.02,0.001-0.11,0.013-0.133,0.012
	c-0.117-0.007-0.248-0.014-0.385-0.014c-3.726,0-7.058,2.351-8.422,5.898c-0.031,0.076-0.136,0.209-0.464,0.162
	c-0.459-0.063-0.922-0.106-1.386-0.106c-4.948,0-8.973,4.025-8.973,8.975c0,4.948,4.025,8.974,8.973,8.974h30.439
	c4.948,0,8.978-4.026,8.978-8.974c0-3.817-2.46-7.236-6.034-8.478C43.088,15.005,42.936,14.935,43.008,14.672z M40.217,30.367H9.775
	c-3.779,0-6.856-3.077-6.856-6.859c0-3.781,3.077-6.857,6.856-6.857c0.466,0,0.93,0.047,1.384,0.14
	c0.168,0.034,0.34,0.053,0.507,0.053c0.871,0,1.551-0.479,1.818-1.281c0.968-2.911,3.607-4.866,6.563-4.866
	c0.09,0,0.194,0.007,0.303,0.014c0.123,0.008,0.262,0.017,0.406,0.019h0.032c0.741,0,1.669-0.258,1.897-1.488
	c0.002-0.017,0.006-0.033,0.009-0.048c1.243-3.969,4.872-6.636,9.038-6.636c5.218,0,9.464,4.248,9.464,9.468
	c0,0.895-0.13,1.803-0.388,2.695c-0.188,0.636-0.043,1.093,0.106,1.367c0.329,0.589,0.916,0.754,1.167,0.824l0.038,0.01
	c2.917,0.841,4.952,3.55,4.952,6.589C47.074,27.29,43.999,30.367,40.217,30.367z"/>
</svg>
