<?xml version="1.0" encoding="utf-8"?>
<!DOCTYPE svg PUBLIC "-//W3C//DTD SVG 1.1//EN" "http://www.w3.org/Graphics/SVG/1.1/DTD/svg11.dtd">
<svg version="1.1" id="Capa_1" xmlns="http://www.w3.org/2000/svg" xmlns:xlink="http://www.w3.org/1999/xlink" x="0px" y="0px"
	 width="12px" height="12px" viewBox="0 0 50 50" enable-background="new 0 0 50 50" xml:space="preserve">
<g>
	<g id="Layer_3_27_">
		<g>
			<path fill="#000000" d="M38.903,9.338c-1.04,0-2.063,0.147-3.05,0.437c-0.806-1.604-1.991-2.98-3.478-4.023
				c-1.832-1.285-3.984-1.963-6.229-1.963c-0.641,0-1.286,0.058-1.924,0.172C21.646,2.048,18.487,1,15.267,1
				C6.98,1,0.238,7.742,0.238,16.029s6.742,15.03,15.03,15.03h23.635c5.986,0,10.857-4.873,10.857-10.861S44.89,9.338,38.903,9.338z
				 M38.903,28.805H15.269c-7.045,0-12.776-5.732-12.776-12.776S8.224,3.253,15.269,3.253c2.931,0,5.688,0.966,7.973,2.795
				c0.27,0.215,0.623,0.295,0.958,0.218c0.644-0.148,1.298-0.224,1.948-0.224c3.546,0,6.777,2.227,8.043,5.54
				c0.105,0.283,0.324,0.511,0.604,0.632c0.276,0.121,0.592,0.125,0.873,0.01c1.03-0.419,2.12-0.631,3.235-0.631
				c4.745,0,8.604,3.861,8.604,8.605C47.507,24.943,43.647,28.805,38.903,28.805z"/>
			<path fill="#000000" d="M22.63,36.094c-0.156-0.271-0.5-0.363-0.771-0.207l-0.53,0.305l0.102-0.379
				c0.08-0.299-0.098-0.609-0.397-0.689s-0.608,0.098-0.69,0.398l-0.393,1.467l-0.996,0.576c-0.294-0.301-0.668-0.521-1.089-0.627
				v-1.152l1.074-1.074c0.22-0.221,0.22-0.576,0-0.797s-0.577-0.221-0.798,0l-0.276,0.277V33.58c0-0.313-0.252-0.564-0.563-0.564
				c-0.311,0-0.563,0.252-0.563,0.564v0.611l-0.277-0.277c-0.221-0.219-0.576-0.219-0.797,0c-0.22,0.221-0.22,0.578,0,0.797
				l1.072,1.074v1.152c-0.42,0.105-0.795,0.326-1.089,0.627l-0.996-0.574l-0.394-1.469c-0.08-0.299-0.39-0.479-0.689-0.398
				c-0.301,0.082-0.479,0.391-0.398,0.689l0.103,0.379l-0.53-0.307c-0.27-0.154-0.613-0.063-0.77,0.207
				c-0.155,0.27-0.063,0.613,0.207,0.77l0.529,0.307l-0.379,0.102c-0.301,0.08-0.479,0.389-0.398,0.691
				c0.068,0.25,0.295,0.416,0.545,0.416c0.048,0,0.097-0.006,0.146-0.02l1.467-0.393l0.994,0.574
				c-0.057,0.201-0.09,0.412-0.09,0.633c0,0.217,0.032,0.426,0.09,0.627l-0.994,0.572l-1.467-0.393
				c-0.301-0.08-0.609,0.098-0.689,0.398c-0.081,0.301,0.098,0.609,0.398,0.689l0.379,0.102l-0.531,0.307
				c-0.27,0.156-0.361,0.5-0.207,0.77c0.104,0.182,0.293,0.281,0.49,0.281c0.094,0,0.191-0.023,0.28-0.074l0.53-0.307l-0.102,0.379
				c-0.08,0.301,0.098,0.609,0.397,0.691c0.049,0.012,0.099,0.018,0.146,0.018c0.25,0,0.478-0.166,0.545-0.418l0.393-1.467
				l0.993-0.572c0.294,0.303,0.67,0.525,1.092,0.631v1.146l-1.074,1.074c-0.221,0.221-0.221,0.576,0,0.797
				c0.22,0.221,0.577,0.221,0.798,0l0.275-0.277v0.613c0,0.311,0.252,0.563,0.563,0.563c0.313,0,0.563-0.254,0.563-0.563v-0.613
				l0.276,0.277c0.111,0.109,0.255,0.166,0.398,0.166c0.145,0,0.288-0.055,0.398-0.166c0.221-0.221,0.221-0.576,0-0.797
				l-1.074-1.074v-1.146c0.422-0.105,0.798-0.328,1.092-0.631l0.994,0.572l0.393,1.467c0.068,0.252,0.295,0.418,0.545,0.418
				c0.047,0,0.098-0.006,0.146-0.02c0.3-0.08,0.479-0.391,0.399-0.689l-0.103-0.379l0.53,0.307c0.089,0.051,0.186,0.074,0.281,0.074
				c0.195,0,0.385-0.1,0.488-0.281c0.156-0.27,0.063-0.613-0.207-0.77l-0.529-0.307l0.379-0.102c0.301-0.08,0.479-0.389,0.398-0.689
				c-0.082-0.301-0.39-0.479-0.69-0.398l-1.468,0.393l-0.992-0.572c0.057-0.199,0.088-0.41,0.088-0.627
				c0-0.221-0.032-0.432-0.09-0.633l0.994-0.574l1.467,0.393c0.049,0.014,0.099,0.02,0.146,0.02c0.25,0,0.475-0.166,0.543-0.416
				c0.082-0.303-0.098-0.609-0.397-0.691l-0.38-0.1l0.531-0.309C22.693,36.707,22.785,36.361,22.63,36.094z M17.302,40.354
				c-0.651,0-1.181-0.529-1.181-1.18c0-0.652,0.529-1.182,1.181-1.182c0.65,0,1.181,0.529,1.181,1.182
				C18.482,39.824,17.952,40.354,17.302,40.354z"/>
			<path fill="#000000" d="M38.896,39.26c-0.156-0.27-0.5-0.361-0.771-0.205l-0.531,0.305l0.103-0.377
				c0.081-0.301-0.097-0.611-0.397-0.689c-0.299-0.08-0.608,0.098-0.688,0.396l-0.394,1.467l-0.998,0.576
				c-0.293-0.301-0.668-0.521-1.088-0.627v-1.152l1.074-1.074c0.221-0.221,0.221-0.576,0-0.797c-0.221-0.219-0.576-0.219-0.796,0
				l-0.278,0.277v-0.613c0-0.311-0.252-0.563-0.563-0.563c-0.313,0-0.563,0.254-0.563,0.563v0.613l-0.278-0.277
				c-0.22-0.221-0.577-0.221-0.796,0s-0.219,0.576,0,0.797l1.074,1.074v1.152c-0.42,0.105-0.795,0.326-1.088,0.627l-0.998-0.576
				l-0.394-1.467c-0.08-0.299-0.39-0.479-0.688-0.396c-0.303,0.08-0.479,0.389-0.399,0.689l0.103,0.377l-0.531-0.305
				c-0.269-0.156-0.613-0.064-0.77,0.207c-0.154,0.268-0.063,0.613,0.207,0.77l0.529,0.307l-0.379,0.102
				c-0.301,0.08-0.479,0.389-0.397,0.689c0.067,0.252,0.295,0.418,0.544,0.418c0.049,0,0.096-0.008,0.146-0.021l1.467-0.393
				l0.996,0.574c-0.059,0.201-0.092,0.414-0.092,0.633c0,0.217,0.033,0.428,0.09,0.627l-0.994,0.572l-1.467-0.393
				c-0.301-0.08-0.608,0.098-0.689,0.398s0.098,0.609,0.398,0.689l0.378,0.104l-0.529,0.305c-0.271,0.156-0.362,0.5-0.207,0.77
				c0.104,0.182,0.293,0.283,0.489,0.283c0.095,0,0.191-0.023,0.281-0.076l0.529-0.307l-0.103,0.379
				c-0.08,0.301,0.098,0.611,0.399,0.691c0.049,0.012,0.098,0.018,0.146,0.018c0.249,0,0.478-0.166,0.544-0.418l0.393-1.465
				l0.994-0.574c0.295,0.303,0.672,0.523,1.092,0.631v1.146l-1.072,1.074c-0.221,0.219-0.221,0.576,0,0.797
				c0.109,0.109,0.253,0.164,0.396,0.164c0.145,0,0.289-0.055,0.397-0.164l0.278-0.279v0.613c0,0.311,0.252,0.563,0.563,0.563
				s0.563-0.252,0.563-0.563v-0.613l0.278,0.279c0.22,0.219,0.577,0.219,0.796,0c0.221-0.221,0.221-0.578,0-0.797l-1.074-1.074
				v-1.146c0.422-0.105,0.799-0.328,1.092-0.631l0.994,0.574l0.394,1.467c0.067,0.252,0.294,0.418,0.543,0.418
				c0.048,0,0.099-0.006,0.146-0.02c0.301-0.08,0.479-0.391,0.397-0.691l-0.103-0.379l0.531,0.307
				c0.09,0.053,0.187,0.076,0.281,0.076c0.194,0,0.385-0.102,0.488-0.283c0.156-0.27,0.063-0.613-0.206-0.77l-0.53-0.305
				l0.381-0.104c0.299-0.08,0.479-0.389,0.397-0.689s-0.39-0.479-0.688-0.398l-1.47,0.393l-0.994-0.572
				c0.058-0.201,0.089-0.41,0.089-0.627c0-0.221-0.031-0.434-0.091-0.635l0.996-0.572l1.47,0.393c0.047,0.012,0.096,0.02,0.145,0.02
				c0.25,0,0.477-0.166,0.545-0.418c0.08-0.301-0.1-0.609-0.398-0.689l-0.38-0.102l0.53-0.307
				C38.96,39.875,39.052,39.529,38.896,39.26z M33.568,43.521c-0.651,0-1.181-0.531-1.181-1.182s0.529-1.182,1.181-1.182
				c0.649,0,1.183,0.531,1.183,1.182C34.749,42.99,34.218,43.521,33.568,43.521z"/>
		</g>
	</g>
</g>
</svg>
