<?xml version="1.0" encoding="utf-8"?>
<!DOCTYPE svg PUBLIC "-//W3C//DTD SVG 1.1//EN" "http://www.w3.org/Graphics/SVG/1.1/DTD/svg11.dtd">
<svg version="1.1" id="Capa_1" xmlns="http://www.w3.org/2000/svg" xmlns:xlink="http://www.w3.org/1999/xlink" x="0px" y="0px"
	 width="12px" height="12px" viewBox="0 0 50 50" enable-background="new 0 0 50 50" xml:space="preserve">
<g>
	<path fill="#000000" d="M6.712,17.195c4.268-3.666,7.641-6.563,16.787-1.395c4.393,2.483,7.938,3.42,10.888,3.419
		c5.167,0,8.515-2.875,11.408-5.362c1.033-0.887,1.167-2.46,0.297-3.515c-0.869-1.055-2.408-1.191-3.442-0.303
		c-4.268,3.666-7.639,6.563-16.788,1.394C13.776,4.605,8.117,9.468,3.566,13.376c-1.031,0.887-1.166,2.46-0.296,3.515
		C4.138,17.945,5.679,18.083,6.712,17.195z M42.652,22.514c-4.268,3.666-7.64,6.564-16.789,1.394
		C13.776,17.08,8.117,21.943,3.566,25.851c-1.031,0.887-1.165,2.462-0.296,3.515c0.869,1.055,2.41,1.19,3.442,0.304
		c4.268-3.667,7.64-6.563,16.787-1.395c4.393,2.481,7.938,3.421,10.888,3.421c5.168,0,8.515-2.876,11.41-5.363
		c1.031-0.888,1.165-2.461,0.295-3.516C45.225,21.762,43.686,21.626,42.652,22.514z M42.652,34.988
		c-4.268,3.667-7.64,6.563-16.789,1.394c-12.087-6.828-17.747-1.964-22.297,1.944c-1.031,0.886-1.165,2.46-0.296,3.517
		c0.869,1.052,2.41,1.189,3.442,0.302c4.268-3.667,7.639-6.563,16.787-1.396c4.393,2.482,7.938,3.421,10.888,3.421
		c5.168,0,8.515-2.877,11.41-5.361c1.031-0.888,1.165-2.462,0.295-3.518C45.225,34.238,43.686,34.102,42.652,34.988z"/>
</g>
</svg>
